\addvspace {10\p@ }
\contentsline {figure}{\numberline {1.1}{\ignorespaces Testing and Consultancy Cell\relax }}{2}{figure.caption.3}
\contentsline {figure}{\numberline {1.2}{\ignorespaces Yaadein\relax }}{3}{figure.caption.4}
\contentsline {figure}{\numberline {1.3}{\ignorespaces Imposition of 16 pages\relax }}{4}{figure.caption.5}
\contentsline {figure}{\numberline {1.4}{\ignorespaces Yaadein\relax }}{6}{figure.caption.6}
\contentsline {figure}{\numberline {1.5}{\ignorespaces Souvenir\relax }}{7}{figure.caption.7}
\addvspace {10\p@ }
\addvspace {10\p@ }
\contentsline {figure}{\numberline {3.1}{\ignorespaces 0-Level-Dfd\relax }}{17}{figure.caption.8}
\contentsline {figure}{\numberline {3.2}{\ignorespaces 1-Level-Dfd\relax }}{17}{figure.caption.9}
\contentsline {figure}{\numberline {3.3}{\ignorespaces 2-Level-Dfd\relax }}{18}{figure.caption.10}
\contentsline {figure}{\numberline {3.4}{\ignorespaces Yaadein\relax }}{18}{figure.caption.11}
\contentsline {figure}{\numberline {3.5}{\ignorespaces Register\relax }}{18}{figure.caption.12}
\contentsline {figure}{\numberline {3.6}{\ignorespaces SignIn\relax }}{19}{figure.caption.13}
\contentsline {figure}{\numberline {3.7}{\ignorespaces Feedback\relax }}{19}{figure.caption.14}
\contentsline {figure}{\numberline {3.8}{\ignorespaces Forgot Password\relax }}{20}{figure.caption.15}
\contentsline {figure}{\numberline {3.9}{\ignorespaces Student Table\relax }}{20}{figure.caption.16}
\contentsline {figure}{\numberline {3.10}{\ignorespaces Register Table\relax }}{21}{figure.caption.17}
\contentsline {figure}{\numberline {3.11}{\ignorespaces Feedback Table\relax }}{21}{figure.caption.18}
\addvspace {10\p@ }
\contentsline {figure}{\numberline {4.1}{\ignorespaces \LaTeX {} Logo\relax }}{25}{figure.caption.19}
\contentsline {figure}{\numberline {4.2}{\ignorespaces Donald Knuth, Inventor Of T\kern -.1667em\lower .5ex\hbox {E}\kern -.125emX\spacefactor \@m {} typesetting system\relax }}{26}{figure.caption.20}
\contentsline {figure}{\numberline {4.3}{\ignorespaces \LaTeX {} Output \relax }}{27}{figure.caption.21}
\contentsline {figure}{\numberline {4.4}{\ignorespaces Compass Logo\relax }}{28}{figure.caption.22}
\contentsline {figure}{\numberline {4.5}{\ignorespaces MySQL Logo\relax }}{30}{figure.caption.23}
\contentsline {figure}{\numberline {4.6}{\ignorespaces Souvenir\relax }}{30}{figure.caption.24}
\contentsline {figure}{\numberline {4.7}{\ignorespaces phpMyAdmin logo\relax }}{31}{figure.caption.25}
\contentsline {figure}{\numberline {4.8}{\ignorespaces Record of students\relax }}{32}{figure.caption.26}
\contentsline {figure}{\numberline {4.9}{\ignorespaces Type-setting using tables\relax }}{33}{figure.caption.27}
\contentsline {figure}{\numberline {4.10}{\ignorespaces Type-setting using psframebox\relax }}{34}{figure.caption.28}
\contentsline {figure}{\numberline {4.11}{\ignorespaces Device Independent File\relax }}{35}{figure.caption.29}
\contentsline {figure}{\numberline {4.12}{\ignorespaces Imposition of pdf files\relax }}{35}{figure.caption.30}
\contentsline {figure}{\numberline {4.13}{\ignorespaces Final Imposition\relax }}{36}{figure.caption.31}
\contentsline {figure}{\numberline {4.14}{\ignorespaces RGB color\relax }}{37}{figure.caption.32}
\contentsline {figure}{\numberline {4.15}{\ignorespaces CMYK color\relax }}{38}{figure.caption.33}
\contentsline {figure}{\numberline {4.16}{\ignorespaces RGB and CMYK difference\relax }}{38}{figure.caption.34}
\contentsline {figure}{\numberline {4.17}{\ignorespaces RGB Check\relax }}{39}{figure.caption.35}
\contentsline {figure}{\numberline {4.18}{\ignorespaces RBG to CMYK page convertion\relax }}{39}{figure.caption.36}
\contentsline {figure}{\numberline {4.19}{\ignorespaces CMYK converted pages\relax }}{40}{figure.caption.37}
\contentsline {figure}{\numberline {4.20}{\ignorespaces Device Independent File Created\relax }}{40}{figure.caption.38}
\contentsline {figure}{\numberline {4.21}{\ignorespaces Post Script File Created\relax }}{41}{figure.caption.39}
\contentsline {figure}{\numberline {4.22}{\ignorespaces RGB To CMYK\relax }}{41}{figure.caption.40}
\contentsline {figure}{\numberline {4.23}{\ignorespaces Gannt Chart\relax }}{44}{figure.caption.41}
\contentsline {figure}{\numberline {4.24}{\ignorespaces Pert Chart\relax }}{44}{figure.caption.42}
\addvspace {10\p@ }
\contentsline {figure}{\numberline {5.1}{\ignorespaces All Files Created\relax }}{47}{figure.caption.43}
\contentsline {figure}{\numberline {5.2}{\ignorespaces Cover Page\relax }}{48}{figure.caption.44}
\contentsline {figure}{\numberline {5.3}{\ignorespaces Yaadein\relax }}{48}{figure.caption.45}
\contentsline {figure}{\numberline {5.4}{\ignorespaces Register\relax }}{49}{figure.caption.46}
\contentsline {figure}{\numberline {5.5}{\ignorespaces SignIn\relax }}{49}{figure.caption.47}
\contentsline {figure}{\numberline {5.6}{\ignorespaces Feedback\relax }}{49}{figure.caption.48}
\contentsline {figure}{\numberline {5.7}{\ignorespaces Forgot Password\relax }}{50}{figure.caption.49}
\contentsline {figure}{\numberline {5.8}{\ignorespaces Forgot Password\relax }}{50}{figure.caption.50}
\contentsline {figure}{\numberline {5.9}{\ignorespaces DB Table\relax }}{50}{figure.caption.51}
\contentsline {figure}{\numberline {5.10}{\ignorespaces DB Feedback\relax }}{51}{figure.caption.52}
\contentsline {figure}{\numberline {5.11}{\ignorespaces DB Feedback\relax }}{51}{figure.caption.53}
\contentsline {figure}{\numberline {5.12}{\ignorespaces DB Feedback\relax }}{52}{figure.caption.54}
\addvspace {10\p@ }
