\relax 
\providecommand\hyper@newdestlabel[2]{}
\providecommand\HyperFirstAtBeginDocument{\AtBeginDocument}
\HyperFirstAtBeginDocument{\ifx\hyper@anchor\@undefined
\global\let\oldcontentsline\contentsline
\gdef\contentsline#1#2#3#4{\oldcontentsline{#1}{#2}{#3}}
\global\let\oldnewlabel\newlabel
\gdef\newlabel#1#2{\newlabelxx{#1}#2}
\gdef\newlabelxx#1#2#3#4#5#6{\oldnewlabel{#1}{{#2}{#3}}}
\AtEndDocument{\ifx\hyper@anchor\@undefined
\let\contentsline\oldcontentsline
\let\newlabel\oldnewlabel
\fi}
\fi}
\global\let\hyper@last\relax 
\gdef\HyperFirstAtBeginDocument#1{#1}
\providecommand\HyField@AuxAddToFields[1]{}
\providecommand\HyField@AuxAddToCoFields[2]{}
\@writefile{toc}{\contentsline {chapter}{\numberline {1}Introduction}{1}{chapter.1}}
\@writefile{lof}{\addvspace {10\p@ }}
\@writefile{lot}{\addvspace {10\p@ }}
\@writefile{toc}{\contentsline {section}{\numberline {1.1}Introduction to Organization}{1}{section.1.1}}
\newlabel{sec:introduction_to_organization_should}{{1.1}{1}{Introduction to Organization}{section.1.1}{}}
\@writefile{toc}{\contentsline {subsection}{\numberline {1.1.1}Testing and Consutancy Cell}{1}{subsection.1.1.1}}
\newlabel{sec:testing_and_consutancy_cell}{{1.1.1}{1}{Testing and Consutancy Cell}{subsection.1.1.1}{}}
\@writefile{lof}{\contentsline {figure}{\numberline {1.1}{\ignorespaces Testing and Consultancy Cell\relax }}{2}{figure.caption.3}}
\@writefile{toc}{\contentsline {section}{\numberline {1.2}Introduction to Project}{2}{section.1.2}}
\newlabel{sec:introduction_to_project}{{1.2}{2}{Introduction to Project}{section.1.2}{}}
\@writefile{lof}{\contentsline {figure}{\numberline {1.2}{\ignorespaces Yaadein\relax }}{3}{figure.caption.4}}
\@writefile{lof}{\contentsline {figure}{\numberline {1.3}{\ignorespaces Imposition of 16 pages\relax }}{4}{figure.caption.5}}
\@writefile{toc}{\contentsline {subsection}{\numberline {1.2.1}Software requirements}{4}{subsection.1.2.1}}
\@writefile{toc}{\contentsline {section}{\numberline {1.3}Project Category}{5}{section.1.3}}
\newlabel{sec:project_category_internet}{{1.3}{5}{Project Category}{section.1.3}{}}
\@writefile{toc}{\contentsline {section}{\numberline {1.4}Objectives}{5}{section.1.4}}
\newlabel{sec:objectives}{{1.4}{5}{Objectives}{section.1.4}{}}
\@writefile{toc}{\contentsline {section}{\numberline {1.5}Problem Formulation and Reorganization of Need}{5}{section.1.5}}
\newlabel{sec:problem_formulation}{{1.5}{5}{Problem Formulation and Reorganization of Need}{section.1.5}{}}
\@writefile{toc}{\contentsline {section}{\numberline {1.6}Existing System}{6}{section.1.6}}
\newlabel{sec:existing_system}{{1.6}{6}{Existing System}{section.1.6}{}}
\@writefile{lof}{\contentsline {figure}{\numberline {1.4}{\ignorespaces Yaadein\relax }}{6}{figure.caption.6}}
\@writefile{toc}{\contentsline {section}{\numberline {1.7}Proposed System}{7}{section.1.7}}
\newlabel{sec:proposed_system}{{1.7}{7}{Proposed System}{section.1.7}{}}
\@writefile{lof}{\contentsline {figure}{\numberline {1.5}{\ignorespaces Souvenir\relax }}{7}{figure.caption.7}}
\@writefile{toc}{\contentsline {section}{\numberline {1.8}Unique Features of the System}{9}{section.1.8}}
\newlabel{sec:unique_features_of_the_system}{{1.8}{9}{Unique Features of the System}{section.1.8}{}}
\@writefile{toc}{\contentsline {chapter}{\numberline {2}Requirement Analysis and System Specification}{10}{chapter.2}}
\@writefile{lof}{\addvspace {10\p@ }}
\@writefile{lot}{\addvspace {10\p@ }}
\@writefile{toc}{\contentsline {section}{\numberline {2.1}Feasibility study}{10}{section.2.1}}
\newlabel{sec:feasibility_study_technical_economical_operational_}{{2.1}{10}{Feasibility study}{section.2.1}{}}
\@writefile{toc}{\contentsline {section}{\numberline {2.2}Software requirement specification document}{10}{section.2.2}}
\newlabel{sec:software_requirement_specification_document}{{2.2}{10}{Software requirement specification document}{section.2.2}{}}
\@writefile{toc}{\contentsline {subsection}{\numberline {2.2.1}Function Requirement}{10}{subsection.2.2.1}}
\@writefile{toc}{\contentsline {subsection}{\numberline {2.2.2}Non Functional Requirements}{10}{subsection.2.2.2}}
\@writefile{toc}{\contentsline {section}{\numberline {2.3}Software and Hardware Requirement}{11}{section.2.3}}
\newlabel{sec:software_and_hardware_requirement}{{2.3}{11}{Software and Hardware Requirement}{section.2.3}{}}
\@writefile{toc}{\contentsline {subsection}{\numberline {2.3.1}Software requirements}{11}{subsection.2.3.1}}
\@writefile{toc}{\contentsline {subsection}{\numberline {2.3.2}Hardware Requirements}{11}{subsection.2.3.2}}
\@writefile{toc}{\contentsline {section}{\numberline {2.4}Validation}{11}{section.2.4}}
\newlabel{sec:validation}{{2.4}{11}{Validation}{section.2.4}{}}
\@writefile{toc}{\contentsline {section}{\numberline {2.5}Expected hurdles}{12}{section.2.5}}
\newlabel{sec:expected_hurdles}{{2.5}{12}{Expected hurdles}{section.2.5}{}}
\@writefile{toc}{\contentsline {section}{\numberline {2.6}SDLC model to be used}{13}{section.2.6}}
\newlabel{sec:sdlc_model_to_be_used}{{2.6}{13}{SDLC model to be used}{section.2.6}{}}
\@writefile{toc}{\contentsline {chapter}{\numberline {3}System Design}{14}{chapter.3}}
\@writefile{lof}{\addvspace {10\p@ }}
\@writefile{lot}{\addvspace {10\p@ }}
\@writefile{toc}{\contentsline {section}{\numberline {3.1}Design Approach}{14}{section.3.1}}
\@writefile{toc}{\contentsline {subsection}{\numberline {3.1.1}SA/SD methodology}{15}{subsection.3.1.1}}
\@writefile{toc}{\contentsline {section}{\numberline {3.2}Detailed Design}{16}{section.3.2}}
\@writefile{toc}{\contentsline {section}{\numberline {3.3}System Design using design tools}{17}{section.3.3}}
\@writefile{lof}{\contentsline {figure}{\numberline {3.1}{\ignorespaces 0-Level-Dfd\relax }}{17}{figure.caption.8}}
\@writefile{lof}{\contentsline {figure}{\numberline {3.2}{\ignorespaces 1-Level-Dfd\relax }}{17}{figure.caption.9}}
\@writefile{lof}{\contentsline {figure}{\numberline {3.3}{\ignorespaces 2-Level-Dfd\relax }}{18}{figure.caption.10}}
\@writefile{toc}{\contentsline {section}{\numberline {3.4}User Interface Design}{18}{section.3.4}}
\newlabel{sec:user_interface_design}{{3.4}{18}{User Interface Design}{section.3.4}{}}
\@writefile{lof}{\contentsline {figure}{\numberline {3.4}{\ignorespaces Yaadein\relax }}{18}{figure.caption.11}}
\@writefile{lof}{\contentsline {figure}{\numberline {3.5}{\ignorespaces Register\relax }}{18}{figure.caption.12}}
\@writefile{lof}{\contentsline {figure}{\numberline {3.6}{\ignorespaces SignIn\relax }}{19}{figure.caption.13}}
\@writefile{lof}{\contentsline {figure}{\numberline {3.7}{\ignorespaces Feedback\relax }}{19}{figure.caption.14}}
\@writefile{lof}{\contentsline {figure}{\numberline {3.8}{\ignorespaces Forgot Password\relax }}{20}{figure.caption.15}}
\@writefile{toc}{\contentsline {section}{\numberline {3.5}Database Design}{20}{section.3.5}}
\newlabel{sec:database_design}{{3.5}{20}{Database Design}{section.3.5}{}}
\@writefile{toc}{\contentsline {subsection}{\numberline {3.5.1}ER Diagrams}{20}{subsection.3.5.1}}
\@writefile{lof}{\contentsline {figure}{\numberline {3.9}{\ignorespaces Student Table\relax }}{20}{figure.caption.16}}
\@writefile{lof}{\contentsline {figure}{\numberline {3.10}{\ignorespaces Register Table\relax }}{21}{figure.caption.17}}
\@writefile{lof}{\contentsline {figure}{\numberline {3.11}{\ignorespaces Feedback Table\relax }}{21}{figure.caption.18}}
\@writefile{toc}{\contentsline {subsection}{\numberline {3.5.2}Normalization}{21}{subsection.3.5.2}}
\@writefile{toc}{\contentsline {subsection}{\numberline {3.5.3}Database Manipulation}{22}{subsection.3.5.3}}
\@writefile{toc}{\contentsline {subsection}{\numberline {3.5.4}Database Connection Controls and Strings}{23}{subsection.3.5.4}}
\@writefile{toc}{\contentsline {section}{\numberline {3.6}Methodology}{23}{section.3.6}}
\@writefile{toc}{\contentsline {chapter}{\numberline {4}Implementation, Testing and Maintenance}{25}{chapter.4}}
\@writefile{lof}{\addvspace {10\p@ }}
\@writefile{lot}{\addvspace {10\p@ }}
\@writefile{toc}{\contentsline {section}{\numberline {4.1}Introduction to Languages}{25}{section.4.1}}
\newlabel{sec:introduction_to_languages_ide_s_tools}{{4.1}{25}{Introduction to Languages}{section.4.1}{}}
\@writefile{toc}{\contentsline {subsection}{\numberline {4.1.1}Inroduction to CodeIgniter}{25}{subsection.4.1.1}}
\newlabel{sub:inroduction_to_codeigniter}{{4.1.1}{25}{Inroduction to CodeIgniter}{subsection.4.1.1}{}}
\@writefile{toc}{\contentsline {subsection}{\numberline {4.1.2}Introduction to \LaTeX  }{25}{subsection.4.1.2}}
\@writefile{lof}{\contentsline {figure}{\numberline {4.1}{\ignorespaces \LaTeX  {} Logo\relax }}{25}{figure.caption.19}}
\@writefile{lof}{\contentsline {figure}{\numberline {4.2}{\ignorespaces Donald Knuth, Inventor Of T\kern -.1667em\lower .5ex\hbox {E}\kern -.125emX\spacefactor \@m {} typesetting system\relax }}{26}{figure.caption.20}}
\@writefile{toc}{\contentsline {subsubsection}{\numberline {4.1.2.1}Typesetting}{26}{subsubsection.4.1.2.1}}
\@writefile{toc}{\contentsline {subsubsection}{\numberline {4.1.2.2}Installing \LaTeX  {} on System}{26}{subsubsection.4.1.2.2}}
\@writefile{lof}{\contentsline {figure}{\numberline {4.3}{\ignorespaces \LaTeX  {} Output \relax }}{27}{figure.caption.21}}
\@writefile{toc}{\contentsline {subsubsection}{\numberline {4.1.2.3}Pdfscreen \LaTeX  {}}{27}{subsubsection.4.1.2.3}}
\@writefile{toc}{\contentsline {subsection}{\numberline {4.1.3}Introduction to Compass}{28}{subsection.4.1.3}}
\@writefile{lof}{\contentsline {figure}{\numberline {4.4}{\ignorespaces Compass Logo\relax }}{28}{figure.caption.22}}
\@writefile{toc}{\contentsline {subsubsection}{\numberline {4.1.3.1}Installation of Compass}{29}{subsubsection.4.1.3.1}}
\@writefile{toc}{\contentsline {subsubsection}{\numberline {4.1.3.2}Creating Project in Compass}{29}{subsubsection.4.1.3.2}}
\@writefile{toc}{\contentsline {subsubsection}{\numberline {4.1.3.3}Compiling Sass to CSS}{29}{subsubsection.4.1.3.3}}
\@writefile{toc}{\contentsline {subsubsection}{\numberline {4.1.3.4}Compass Configuration}{29}{subsubsection.4.1.3.4}}
\@writefile{toc}{\contentsline {subsection}{\numberline {4.1.4}Introduction to MySQL}{29}{subsection.4.1.4}}
\newlabel{sub:Introduction to MySQL}{{4.1.4}{29}{Introduction to MySQL}{subsection.4.1.4}{}}
\@writefile{lof}{\contentsline {figure}{\numberline {4.5}{\ignorespaces MySQL Logo\relax }}{30}{figure.caption.23}}
\@writefile{toc}{\contentsline {section}{\numberline {4.2}Implementation Of Project}{30}{section.4.2}}
\@writefile{lof}{\contentsline {figure}{\numberline {4.6}{\ignorespaces Souvenir\relax }}{30}{figure.caption.24}}
\@writefile{toc}{\contentsline {subsection}{\numberline {4.2.1}Fetching of data from the database}{31}{subsection.4.2.1}}
\@writefile{lof}{\contentsline {figure}{\numberline {4.7}{\ignorespaces phpMyAdmin logo\relax }}{31}{figure.caption.25}}
\@writefile{toc}{\contentsline {subsection}{\numberline {4.2.2}Typesetting of data}{32}{subsection.4.2.2}}
\@writefile{lof}{\contentsline {figure}{\numberline {4.8}{\ignorespaces Record of students\relax }}{32}{figure.caption.26}}
\@writefile{toc}{\contentsline {subsection}{\numberline {4.2.3}Creating a DVI file}{32}{subsection.4.2.3}}
\@writefile{toc}{\contentsline {subsection}{\numberline {4.2.4}Creating a postscript file}{33}{subsection.4.2.4}}
\@writefile{lof}{\contentsline {figure}{\numberline {4.9}{\ignorespaces Type-setting using tables\relax }}{33}{figure.caption.27}}
\@writefile{toc}{\contentsline {subsection}{\numberline {4.2.5}Use In Printing}{33}{subsection.4.2.5}}
\@writefile{lof}{\contentsline {figure}{\numberline {4.10}{\ignorespaces Type-setting using psframebox\relax }}{34}{figure.caption.28}}
\@writefile{toc}{\contentsline {subsection}{\numberline {4.2.6}Creating a PDF file}{34}{subsection.4.2.6}}
\@writefile{lof}{\contentsline {figure}{\numberline {4.11}{\ignorespaces Device Independent File\relax }}{35}{figure.caption.29}}
\@writefile{toc}{\contentsline {subsection}{\numberline {4.2.7}Imposition of the pdf}{35}{subsection.4.2.7}}
\@writefile{lof}{\contentsline {figure}{\numberline {4.12}{\ignorespaces Imposition of pdf files\relax }}{35}{figure.caption.30}}
\@writefile{lof}{\contentsline {figure}{\numberline {4.13}{\ignorespaces Final Imposition\relax }}{36}{figure.caption.31}}
\@writefile{toc}{\contentsline {subsection}{\numberline {4.2.8}Color separation of the pdf}{37}{subsection.4.2.8}}
\@writefile{toc}{\contentsline {subsection}{\numberline {4.2.9}RGB}{37}{subsection.4.2.9}}
\@writefile{lof}{\contentsline {figure}{\numberline {4.14}{\ignorespaces RGB color\relax }}{37}{figure.caption.32}}
\@writefile{toc}{\contentsline {subsection}{\numberline {4.2.10}CMYK}{37}{subsection.4.2.10}}
\@writefile{lof}{\contentsline {figure}{\numberline {4.15}{\ignorespaces CMYK color\relax }}{38}{figure.caption.33}}
\@writefile{toc}{\contentsline {subsection}{\numberline {4.2.11}RGB to CMYK}{38}{subsection.4.2.11}}
\@writefile{lof}{\contentsline {figure}{\numberline {4.16}{\ignorespaces RGB and CMYK difference\relax }}{38}{figure.caption.34}}
\@writefile{lof}{\contentsline {figure}{\numberline {4.17}{\ignorespaces RGB Check\relax }}{39}{figure.caption.35}}
\@writefile{lof}{\contentsline {figure}{\numberline {4.18}{\ignorespaces RBG to CMYK page convertion\relax }}{39}{figure.caption.36}}
\@writefile{toc}{\contentsline {section}{\numberline {4.3}Evaluation and Maintenance}{39}{section.4.3}}
\@writefile{lof}{\contentsline {figure}{\numberline {4.19}{\ignorespaces CMYK converted pages\relax }}{40}{figure.caption.37}}
\@writefile{lof}{\contentsline {figure}{\numberline {4.20}{\ignorespaces Device Independent File Created\relax }}{40}{figure.caption.38}}
\@writefile{lof}{\contentsline {figure}{\numberline {4.21}{\ignorespaces Post Script File Created\relax }}{41}{figure.caption.39}}
\@writefile{toc}{\contentsline {subsection}{\numberline {4.3.1}RGB To CMYK Example :-}{41}{subsection.4.3.1}}
\@writefile{lof}{\contentsline {figure}{\numberline {4.22}{\ignorespaces RGB To CMYK\relax }}{41}{figure.caption.40}}
\@writefile{toc}{\contentsline {section}{\numberline {4.4}Coding standards of Language used}{41}{section.4.4}}
\newlabel{sec:coding_standards_of_language_used}{{4.4}{41}{Coding standards of Language used}{section.4.4}{}}
\@writefile{toc}{\contentsline {section}{\numberline {4.5}Project Scheduling}{43}{section.4.5}}
\newlabel{sec:project_scheduling_}{{4.5}{43}{Project Scheduling}{section.4.5}{}}
\@writefile{toc}{\contentsline {subsection}{\numberline {4.5.1}Gantt Charts}{43}{subsection.4.5.1}}
\@writefile{lof}{\contentsline {figure}{\numberline {4.23}{\ignorespaces Gannt Chart\relax }}{44}{figure.caption.41}}
\@writefile{toc}{\contentsline {subsection}{\numberline {4.5.2}PERT Chart}{44}{subsection.4.5.2}}
\@writefile{lof}{\contentsline {figure}{\numberline {4.24}{\ignorespaces Pert Chart\relax }}{44}{figure.caption.42}}
\@writefile{toc}{\contentsline {section}{\numberline {4.6}Testing Techniques and Test Plans}{45}{section.4.6}}
\newlabel{sec:testing_techniques_and_test_plans}{{4.6}{45}{Testing Techniques and Test Plans}{section.4.6}{}}
\@writefile{toc}{\contentsline {chapter}{\numberline {5}Results and Discussions}{47}{chapter.5}}
\@writefile{lof}{\addvspace {10\p@ }}
\@writefile{lot}{\addvspace {10\p@ }}
\@writefile{toc}{\contentsline {section}{\numberline {5.1}User Interface Representation}{47}{section.5.1}}
\newlabel{sec:user_interface_representation}{{5.1}{47}{User Interface Representation}{section.5.1}{}}
\@writefile{lof}{\contentsline {figure}{\numberline {5.1}{\ignorespaces All Files Created\relax }}{47}{figure.caption.43}}
\@writefile{lof}{\contentsline {figure}{\numberline {5.2}{\ignorespaces Cover Page\relax }}{48}{figure.caption.44}}
\@writefile{toc}{\contentsline {section}{\numberline {5.2}Snapshots of system with brief detail of each}{48}{section.5.2}}
\newlabel{sec:snapshots_of_system_with_brief_detail_of_each}{{5.2}{48}{Snapshots of system with brief detail of each}{section.5.2}{}}
\@writefile{lof}{\contentsline {figure}{\numberline {5.3}{\ignorespaces Yaadein\relax }}{48}{figure.caption.45}}
\@writefile{lof}{\contentsline {figure}{\numberline {5.4}{\ignorespaces Register\relax }}{49}{figure.caption.46}}
\@writefile{lof}{\contentsline {figure}{\numberline {5.5}{\ignorespaces SignIn\relax }}{49}{figure.caption.47}}
\@writefile{lof}{\contentsline {figure}{\numberline {5.6}{\ignorespaces Feedback\relax }}{49}{figure.caption.48}}
\@writefile{lof}{\contentsline {figure}{\numberline {5.7}{\ignorespaces Forgot Password\relax }}{50}{figure.caption.49}}
\@writefile{lof}{\contentsline {figure}{\numberline {5.8}{\ignorespaces Forgot Password\relax }}{50}{figure.caption.50}}
\@writefile{toc}{\contentsline {section}{\numberline {5.3}Back Ends Representation}{50}{section.5.3}}
\newlabel{sec:back_ends_representation}{{5.3}{50}{Back Ends Representation}{section.5.3}{}}
\@writefile{lof}{\contentsline {figure}{\numberline {5.9}{\ignorespaces DB Table\relax }}{50}{figure.caption.51}}
\@writefile{lof}{\contentsline {figure}{\numberline {5.10}{\ignorespaces DB Feedback\relax }}{51}{figure.caption.52}}
\@writefile{lof}{\contentsline {figure}{\numberline {5.11}{\ignorespaces DB Feedback\relax }}{51}{figure.caption.53}}
\@writefile{lof}{\contentsline {figure}{\numberline {5.12}{\ignorespaces DB Feedback\relax }}{52}{figure.caption.54}}
\@writefile{toc}{\contentsline {chapter}{\numberline {6}Conclusion and Future Scope}{53}{chapter.6}}
\@writefile{lof}{\addvspace {10\p@ }}
\@writefile{lot}{\addvspace {10\p@ }}
\@writefile{toc}{\contentsline {section}{\numberline {6.1}Conclusion}{53}{section.6.1}}
\@writefile{toc}{\contentsline {section}{\numberline {6.2}Current status}{53}{section.6.2}}
\@writefile{toc}{\contentsline {section}{\numberline {6.3}Scope}{53}{section.6.3}}
\bibcite{}{1}
\bibcite{}{2}
\bibcite{}{3}
\bibcite{}{4}
\bibcite{}{5}
\newlabel{LastPage}{{}{54}{}{page.54}{}}
\xdef\lastpage@lastpage{54}
\xdef\lastpage@lastpageHy{54}
